# split_time() works

    Code
      res[[1]]
    Output
      # A tibble: 1,262 x 9
         decimalLatitude decimalLongitude eventDate           scientificName          
                   <dbl>            <dbl> <dttm>              <chr>                   
       1           -42.7             147. 2019-01-01 16:00:00 Strepera (Strepera) ful~
       2           -42.7             147. 2019-01-01 16:00:00 Anthochaera (Anthochaer~
       3           -42.7             147. 2019-01-01 16:00:00 Cacatua (Cacatua) galer~
       4           -42.7             147. 2019-01-01 16:00:00 Zanda funerea           
       5           -42.7             147. 2019-01-01 16:00:00 Nesoptilotis flavicollis
       6           -42.7             147. 2019-01-01 16:00:00 Phylidonyris (Phylidony~
       7           -42.1             146. 2019-01-02 08:00:00 Corvus tasmanicus       
       8           -42.1             146. 2019-01-02 08:00:00 Strepera (Strepera) ful~
       9           -42.1             146. 2019-01-02 08:00:00 Anthochaera (Anthochaer~
      10           -42.1             146. 2019-01-02 08:00:00 Phylidonyris (Phylidony~
      # i 1,252 more rows
      # i 5 more variables: taxonConceptID <chr>, recordID <chr>,
      #   dataResourceName <chr>, occurrenceStatus <chr>, ym <mth>
